{
  "title": "Address",
  "description": "User Address",
  "type": "object",
  "properties": {
    "id": {
      "description": "Address id",
      "type": "integer"
    },
    "line1": {
      "description": "line1",
      "type": "string",
      "minLength": 1,
      "maxLength": 255
    },
    "line2": {
      "description": "line2",
      "type": "string",
      "minLength": 1,
      "maxLength": 255
    },
    "city": {
      "description": "city",
      "type": "string",
      "minLength": 1,
      "maxLength": 255
    },
    "state": {
      "description": "state",
      "type": "string",
      "minLength": 1,
      "maxLength": 255
    },
    "zipcode": {
      "description": "zipcode",
      "type": "string"
    }
  },
  "required": [
    "line1",
    "city",
    "state",
    "zipcode"
  ]
}